{"key":"value"}
{"key":"value"}
{"key":"value"}
{"key":"value"}
{"key":"value"}
{"key":"value"}
{"key":"value"}
{"key":"value"}
{"key":"value"}
{"key":"value"}
{"key":"value"}
{"key":"value"}
{"key":"value"}
{"key":"value"}
{"key":"value"}
{"key":"value"}
{"key":"value"}
{"key":"value"}
{"key":"value"}
{"key":"value"}
{"key":"value"}
{"key":"value"}
{"key":"value"}
{"key":"value"}
{"key":"value"}
{"key":"value"}
{"key":"value"}
{"key":"value"}
{"key":"value"}
{"key":"value"}
{"key":"value"}
{"key":"value"}
{"key":"value"}
{"key":"value"}
{"key":"value"}
{"key":"value"}
{"key":"value"}
{"key":"value"}
{"key":"value"}
{"key":"value"}
{"key":"value"}
{"key":"value"}
{"key":"value"}
{"key":"value"}
{"key":"value"}
{"key":"value"}
{"key":"value"}
{"key":"value"}
{"key":"value"}
{"key":"value"}
{"key":"value"}
{"key":"value"}
{"key":"value"}
{"key":"value"}
{"key":"value"}
{"key":"value"}
{"key":"value"}
{"key":"value"}
{"key":"value"}
{"key":"value"}
{"key":"value"}
{"key":"value"}
{"key":"value"}
{"key":"value"}
{"key":"value"}
{"key":"value"}
{"key":"value"}
{"key":"value"}
{"key":"value"}
{"key":"value","count":true}
{"key":"value","count":true}
{"key":"value","count":true}
{"key":"value"}
{"key":"value"}
{"key":"value"}
{"key":"value"}
{"key":"value"}
{"key":"value"}
{"key":"value","count":true}
